{
  "times": [
    "08:30", "09:00", "09:30", "10:00", "10:30"
  ],
  "services": {
    "Head Shave": {"duration": 40},
    "Scrubbing": {"duration": 30},
    "Massage": {"duration": 90},
    "Beards": {"duration": 30},
    "Hair Dye": {"duration": 40}
  },
  "appointments": []
}

